{"verses":[{"id":4980,"verse_number":1,"chapter_id":56,"verse_key":"56:1","text_madani":"إِذَا وَقَعَتِ الْوَاقِعَةُ","text_indopak":"اِذَا وَقَعَتِ الۡوَاقِعَةُ","text_simple":"اذا وقعت الواقعة","juz_number":27,"hizb_number":54,"rub_number":214,"sajdah":null,"sajdah_number":null,"page_number":534,"audio":{"url":"versesSudais/mp3/056001.mp3","duration":2,"segments":[["0","1","390","880"],["1","2","890","1570"],["2","3","1580","2550"]],"format":"mp3"},"translations":[{"id":179595,"language_name":"indonesian","text":"Apabila terjadi hari Kiamat,","resource_name":"Indonesian","resource_id":33}],"media_contents":[],"words":[{"id":299,"position":1,"text_madani":"إِذَا","text_indopak":null,"text_simple":"اذا","verse_key":"56:1","class_name":"p534","line_number":9,"page_number":534,"code":"&#xfb8d;","code_v3":"&#xfb8d;","char_type":"word","audio":{"url":"//verses.quran.com/wbw/056_001_001.mp3"},"translation":{"id":628393,"language_name":"indonesian","text":"","resource_name":"Indonesian word by word translation","resource_id":100},"transliteration":{"id":239,"language_name":"english","text":"When","resource_name":null,"resource_id":59}},{"id":300,"position":2,"text_madani":"وَقَعَتِ","text_indopak":null,"text_simple":"وقعت","verse_key":"56:1","class_name":"p534","line_number":9,"page_number":534,"code":"&#xfb8e;","code_v3":"&#xfb8e;","char_type":"word","audio":{"url":"//verses.quran.com/wbw/056_001_002.mp3"},"translation":{"id":628395,"language_name":"indonesian","text":"","resource_name":"Indonesian word by word translation","resource_id":100},"transliteration":{"id":240,"language_name":"english","text":"occurs","resource_name":null,"resource_id":59}},{"id":301,"position":3,"text_madani":"الْوَاقِعَةُ","text_indopak":null,"text_simple":"الواقعة","verse_key":"56:1","class_name":"p534","line_number":9,"page_number":534,"code":"&#xfb8f;","code_v3":"&#xfb8f;","char_type":"word","audio":{"url":"//verses.quran.com/wbw/056_001_003.mp3"},"translation":{"id":628397,"language_name":"indonesian","text":"","resource_name":"Indonesian word by word translation","resource_id":100},"transliteration":{"id":241,"language_name":"english","text":"the Event","resource_name":null,"resource_id":59}},{"id":302,"position":4,"text_madani":null,"text_indopak":null,"text_simple":null,"verse_key":"56:1","class_name":"p534","line_number":9,"page_number":534,"code":"&#xfb90;","code_v3":"&#xa001;","char_type":"end","audio":{"url":null},"translation":null,"transliteration":null}]},{"id":4981,"verse_number":2,"chapter_id":56,"verse_key":"56:2","text_madani":"لَيْسَ لِوَقْعَتِهَا كَاذِبَةٌ","text_indopak":"لَيۡسَ لِـوَقۡعَتِهَا كَاذِبَةٌ‌","text_simple":"ليس لوقعتها كاذبة","juz_number":27,"hizb_number":54,"rub_number":214,"sajdah":null,"sajdah_number":null,"page_number":534,"audio":{"url":"versesSudais/mp3/056002.mp3","duration":2,"segments":[["0","1","190","700"],["1","2","710","1860"],["2","3","1870","2740"]],"format":"mp3"},"translations":[{"id":179606,"language_name":"indonesian","text":"terjadinya tidak dapat didustakan (disangkal).","resource_name":"Indonesian","resource_id":33}],"media_contents":[],"words":[{"id":1221,"position":1,"text_madani":"لَيْسَ","text_indopak":null,"text_simple":"ليس","verse_key":"56:2","class_name":"p534","line_number":9,"page_number":534,"code":"&#xfb91;","code_v3":"&#xfb91;","char_type":"word","audio":{"url":"//verses.quran.com/wbw/056_002_001.mp3"},"translation":{"id":628399,"language_name":"indonesian","text":"tidak","resource_name":"Indonesian word by word translation","resource_id":100},"transliteration":{"id":1016,"language_name":"english","text":"Not","resource_name":null,"resource_id":59}},{"id":1222,"position":2,"text_madani":"لِوَقْعَتِهَا","text_indopak":null,"text_simple":"لوقعتها","verse_key":"56:2","class_name":"p534","line_number":9,"page_number":534,"code":"&#xfb92;","code_v3":"&#xfb92;","char_type":"word","audio":{"url":"//verses.quran.com/wbw/056_002_002.mp3"},"translation":{"id":628401,"language_name":"indonesian","text":"bagi/tentang terjadinya","resource_name":"Indonesian word by word translation","resource_id":100},"transliteration":{"id":1017,"language_name":"english","text":"at its occurrence","resource_name":null,"resource_id":59}},{"id":1223,"position":3,"text_madani":"كَاذِبَةٌ","text_indopak":null,"text_simple":"كاذبة","verse_key":"56:2","class_name":"p534","line_number":9,"page_number":534,"code":"&#xfb93;","code_v3":"&#xfb93;","char_type":"word","audio":{"url":"//verses.quran.com/wbw/056_002_003.mp3"},"translation":{"id":628403,"language_name":"indonesian","text":"seseorang yang mendustakan","resource_name":"Indonesian word by word translation","resource_id":100},"transliteration":{"id":1018,"language_name":"english","text":"a denial","resource_name":null,"resource_id":59}},{"id":1224,"position":4,"text_madani":null,"text_indopak":null,"text_simple":null,"verse_key":"56:2","class_name":"p534","line_number":9,"page_number":534,"code":"&#xfb94;","code_v3":"&#xa002;","char_type":"end","audio":{"url":null},"translation":null,"transliteration":null}]},{"id":4982,"verse_number":3,"chapter_id":56,"verse_key":"56:3","text_madani":"خَافِضَةٌ رَّافِعَةٌ","text_indopak":"خَافِضَةٌ رَّافِعَةٌ","text_simple":"خافضة رافعة","juz_number":27,"hizb_number":54,"rub_number":214,"sajdah":null,"sajdah_number":null,"page_number":534,"audio":{"url":"versesSudais/mp3/056003.mp3","duration":1,"segments":[["0","1","100","1240"],["1","2","1250","1828"]],"format":"mp3"},"translations":[{"id":179635,"language_name":"indonesian","text":"(Kejadian itu) merendahkan (satu golongan) dan meninggikan (golongan yang lain).","resource_name":"Indonesian","resource_id":33}],"media_contents":[],"words":[{"id":2257,"position":1,"text_madani":"خَافِضَةٌ","text_indopak":null,"text_simple":"خافضة","verse_key":"56:3","class_name":"p534","line_number":9,"page_number":534,"code":"&#xfb95;","code_v3":"&#xfb95;","char_type":"word","audio":{"url":"//verses.quran.com/wbw/056_003_001.mp3"},"translation":{"id":628405,"language_name":"indonesian","text":"yang merendahkan","resource_name":"Indonesian word by word translation","resource_id":100},"transliteration":{"id":1902,"language_name":"english","text":"Bringing down","resource_name":null,"resource_id":59}},{"id":2258,"position":2,"text_madani":"رَافِعَةٌ","text_indopak":null,"text_simple":"رافعة","verse_key":"56:3","class_name":"p534","line_number":9,"page_number":534,"code":"&#xfb96;","code_v3":"&#xfb96;","char_type":"word","audio":{"url":"//verses.quran.com/wbw/056_003_002.mp3"},"translation":{"id":628407,"language_name":"indonesian","text":"yang meninggikan","resource_name":"Indonesian word by word translation","resource_id":100},"transliteration":{"id":1903,"language_name":"english","text":"raising up","resource_name":null,"resource_id":59}},{"id":2259,"position":3,"text_madani":null,"text_indopak":null,"text_simple":null,"verse_key":"56:3","class_name":"p534","line_number":10,"page_number":534,"code":"&#xfb97;","code_v3":"&#xa003;","char_type":"end","audio":{"url":null},"translation":null,"transliteration":null}]},{"id":4983,"verse_number":4,"chapter_id":56,"verse_key":"56:4","text_madani":"إِذَا رُجَّتِ الْأَرْضُ رَجًّا","text_indopak":"اِذَا رُجَّتِ الۡاَرۡضُ رَجًّا","text_simple":"اذا رجت الارض رجا","juz_number":27,"hizb_number":54,"rub_number":214,"sajdah":null,"sajdah_number":null,"page_number":534,"audio":{"url":"versesSudais/mp3/056004.mp3","duration":2,"segments":[["0","1","420","850"],["1","2","860","1480"],["2","3","1490","2070"],["3","4","2080","2580"]],"format":"mp3"},"translations":[{"id":179625,"language_name":"indonesian","text":"Apabila bumi diguncangkan sedahsyat-dahsyatnya,","resource_name":"Indonesian","resource_id":33}],"media_contents":[],"words":[{"id":3582,"position":1,"text_madani":"إِذَا","text_indopak":null,"text_simple":"اذا","verse_key":"56:4","class_name":"p534","line_number":10,"page_number":534,"code":"&#xfb98;","code_v3":"&#xfb98;","char_type":"word","audio":{"url":"//verses.quran.com/wbw/056_004_001.mp3"},"translation":{"id":628409,"language_name":"indonesian","text":"apabila","resource_name":"Indonesian word by word translation","resource_id":100},"transliteration":{"id":3045,"language_name":"english","text":"When","resource_name":null,"resource_id":59}},{"id":3583,"position":2,"text_madani":"رُجَّتِ","text_indopak":null,"text_simple":"رجت","verse_key":"56:4","class_name":"p534","line_number":10,"page_number":534,"code":"&#xfb99;","code_v3":"&#xfb99;","char_type":"word","audio":{"url":"//verses.quran.com/wbw/056_004_002.mp3"},"translation":{"id":628411,"language_name":"indonesian","text":"digoncangkan","resource_name":"Indonesian word by word translation","resource_id":100},"transliteration":{"id":3046,"language_name":"english","text":"will be shaken","resource_name":null,"resource_id":59}},{"id":3584,"position":3,"text_madani":"الْأَرْضُ","text_indopak":null,"text_simple":"الارض","verse_key":"56:4","class_name":"p534","line_number":10,"page_number":534,"code":"&#xfb9a;","code_v3":"&#xfb9a;","char_type":"word","audio":{"url":"//verses.quran.com/wbw/056_004_003.mp3"},"translation":{"id":628413,"language_name":"indonesian","text":"bumi","resource_name":"Indonesian word by word translation","resource_id":100},"transliteration":{"id":3047,"language_name":"english","text":"the earth","resource_name":null,"resource_id":59}},{"id":3585,"position":4,"text_madani":"رَجًّا","text_indopak":null,"text_simple":"رجا","verse_key":"56:4","class_name":"p534","line_number":10,"page_number":534,"code":"&#xfb9b;","code_v3":"&#xfb9b;","char_type":"word","audio":{"url":"//verses.quran.com/wbw/056_004_004.mp3"},"translation":{"id":628415,"language_name":"indonesian","text":"goncangan yang keras","resource_name":"Indonesian word by word translation","resource_id":100},"transliteration":{"id":3048,"language_name":"english","text":"(with) a shaking","resource_name":null,"resource_id":59}},{"id":3586,"position":5,"text_madani":null,"text_indopak":null,"text_simple":null,"verse_key":"56:4","class_name":"p534","line_number":10,"page_number":534,"code":"&#xfb9c;","code_v3":"&#xa004;","char_type":"end","audio":{"url":null},"translation":null,"transliteration":null}]},{"id":4984,"verse_number":5,"chapter_id":56,"verse_key":"56:5","text_madani":"وَبُسَّتِ الْجِبَالُ بَسًّا","text_indopak":"وَّبُسَّتِ الۡجِبَالُ بَسًّا","text_simple":"وبست الجبال بسا","juz_number":27,"hizb_number":54,"rub_number":214,"sajdah":null,"sajdah_number":null,"page_number":534,"audio":{"url":"versesSudais/mp3/056005.mp3","duration":2,"segments":[["0","1","210","970"],["1","2","980","1820"],["2","3","1830","2460"]],"format":"mp3"},"translations":[{"id":179644,"language_name":"indonesian","text":"dan gunung-gunung dihancurluluhkan sehancur-hancurnya,","resource_name":"Indonesian","resource_id":33}],"media_contents":[],"words":[{"id":4909,"position":1,"text_madani":"وَبُسَّتِ","text_indopak":null,"text_simple":"وبست","verse_key":"56:5","class_name":"p534","line_number":10,"page_number":534,"code":"&#xfb9d;","code_v3":"&#xfb9d;","char_type":"word","audio":{"url":"//verses.quran.com/wbw/056_005_001.mp3"},"translation":{"id":628417,"language_name":"indonesian","text":"dan dihancurkan","resource_name":"Indonesian word by word translation","resource_id":100},"transliteration":{"id":4194,"language_name":"english","text":"And will be crumbled","resource_name":null,"resource_id":59}},{"id":4910,"position":2,"text_madani":"الْجِبَالُ","text_indopak":null,"text_simple":"الجبال","verse_key":"56:5","class_name":"p534","line_number":10,"page_number":534,"code":"&#xfb9e;","code_v3":"&#xfb9e;","char_type":"word","audio":{"url":"//verses.quran.com/wbw/056_005_002.mp3"},"translation":{"id":628419,"language_name":"indonesian","text":"gunung-gunung","resource_name":"Indonesian word by word translation","resource_id":100},"transliteration":{"id":4195,"language_name":"english","text":"the mountains","resource_name":null,"resource_id":59}},{"id":4911,"position":3,"text_madani":"بَسًّا","text_indopak":null,"text_simple":"بسا","verse_key":"56:5","class_name":"p534","line_number":10,"page_number":534,"code":"&#xfb9f;","code_v3":"&#xfb9f;","char_type":"word","audio":{"url":"//verses.quran.com/wbw/056_005_003.mp3"},"translation":{"id":628421,"language_name":"indonesian","text":"sehancur-hancurnya","resource_name":"Indonesian word by word translation","resource_id":100},"transliteration":{"id":4196,"language_name":"english","text":"(with awful) crumbling","resource_name":null,"resource_id":59}},{"id":4912,"position":4,"text_madani":null,"text_indopak":null,"text_simple":null,"verse_key":"56:5","class_name":"p534","line_number":10,"page_number":534,"code":"&#xfba0;","code_v3":"&#xa005;","char_type":"end","audio":{"url":null},"translation":null,"transliteration":null}]},{"id":4985,"verse_number":6,"chapter_id":56,"verse_key":"56:6","text_madani":"فَكَانَتْ هَبَاءً مُّنبَثًّا","text_indopak":"فَكَانَتۡ هَبَآءً مُّنۡۢبَـثًّا","text_simple":"فكانت هباء منبثا","juz_number":27,"hizb_number":54,"rub_number":214,"sajdah":null,"sajdah_number":null,"page_number":534,"audio":{"url":"versesSudais/mp3/056006.mp3","duration":4,"segments":[["0","1","220","1060"],["1","2","1070","3670"],["2","3","3680","4340"]],"format":"mp3"},"translations":[{"id":179701,"language_name":"indonesian","text":"maka jadilah ia debu yang beterbangan,","resource_name":"Indonesian","resource_id":33}],"media_contents":[],"words":[{"id":6181,"position":1,"text_madani":"فَكَانَتْ","text_indopak":null,"text_simple":"فكانت","verse_key":"56:6","class_name":"p534","line_number":11,"page_number":534,"code":"&#xfba1;","code_v3":"&#xfba1;","char_type":"word","audio":{"url":"//verses.quran.com/wbw/056_006_001.mp3"},"translation":{"id":628423,"language_name":"indonesian","text":"dan adalah/jadilah ia","resource_name":"Indonesian word by word translation","resource_id":100},"transliteration":{"id":5296,"language_name":"english","text":"So they become","resource_name":null,"resource_id":59}},{"id":6182,"position":2,"text_madani":"هَبَاءً","text_indopak":null,"text_simple":"هباء","verse_key":"56:6","class_name":"p534","line_number":11,"page_number":534,"code":"&#xfba2;","code_v3":"&#xfba2;","char_type":"word","audio":{"url":"//verses.quran.com/wbw/056_006_002.mp3"},"translation":{"id":628425,"language_name":"indonesian","text":"debu","resource_name":"Indonesian word by word translation","resource_id":100},"transliteration":{"id":5297,"language_name":"english","text":"dust particles","resource_name":null,"resource_id":59}},{"id":6183,"position":3,"text_madani":"مُنْبَثًّا","text_indopak":null,"text_simple":"منبثا","verse_key":"56:6","class_name":"p534","line_number":11,"page_number":534,"code":"&#xfba3;","code_v3":"&#xfba3;","char_type":"word","audio":{"url":"//verses.quran.com/wbw/056_006_003.mp3"},"translation":{"id":628427,"language_name":"indonesian","text":"berterbangan","resource_name":"Indonesian word by word translation","resource_id":100},"transliteration":{"id":5298,"language_name":"english","text":"dispersing","resource_name":null,"resource_id":59}},{"id":6184,"position":4,"text_madani":null,"text_indopak":null,"text_simple":null,"verse_key":"56:6","class_name":"p534","line_number":11,"page_number":534,"code":"&#xfba4;","code_v3":"&#xa006;","char_type":"end","audio":{"url":null},"translation":null,"transliteration":null}]},{"id":4986,"verse_number":7,"chapter_id":56,"verse_key":"56:7","text_madani":"وَكُنتُمْ أَزْوَاجًا ثَلَاثَةً","text_indopak":"وَّكُنۡـتُمۡ اَزۡوَاجًا ثَلٰـثَـةً","text_simple":"وكنتم ازواجا ثلاثة","juz_number":27,"hizb_number":54,"rub_number":214,"sajdah":null,"sajdah_number":null,"page_number":534,"audio":{"url":"versesSudais/mp3/056007.mp3","duration":3,"segments":[["0","1","180","1220"],["1","2","1230","2360"],["2","3","2370","3150"]],"format":"mp3"},"translations":[{"id":179665,"language_name":"indonesian","text":"dan kamu menjadi tiga golongan,","resource_name":"Indonesian","resource_id":33}],"media_contents":[],"words":[{"id":7500,"position":1,"text_madani":"وَكُنْتُمْ","text_indopak":null,"text_simple":"وكنتم","verse_key":"56:7","class_name":"p534","line_number":11,"page_number":534,"code":"&#xfba5;","code_v3":"&#xfba5;","char_type":"word","audio":{"url":"//verses.quran.com/wbw/056_007_001.mp3"},"translation":{"id":628429,"language_name":"indonesian","text":"dan adalah/jadilah kamu","resource_name":"Indonesian word by word translation","resource_id":100},"transliteration":{"id":6463,"language_name":"english","text":"And you will become","resource_name":null,"resource_id":59}},{"id":7501,"position":2,"text_madani":"أَزْوَاجًا","text_indopak":null,"text_simple":"ازواجا","verse_key":"56:7","class_name":"p534","line_number":11,"page_number":534,"code":"&#xfba6;","code_v3":"&#xfba6;","char_type":"word","audio":{"url":"//verses.quran.com/wbw/056_007_002.mp3"},"translation":{"id":628431,"language_name":"indonesian","text":"pasangan/golongan","resource_name":"Indonesian word by word translation","resource_id":100},"transliteration":{"id":6464,"language_name":"english","text":"kinds","resource_name":null,"resource_id":59}},{"id":7502,"position":3,"text_madani":"ثَلَاثَةً","text_indopak":null,"text_simple":"ثلاثة","verse_key":"56:7","class_name":"p534","line_number":11,"page_number":534,"code":"&#xfba7;","code_v3":"&#xfba7;","char_type":"word","audio":{"url":"//verses.quran.com/wbw/056_007_003.mp3"},"translation":{"id":628433,"language_name":"indonesian","text":"tiga","resource_name":"Indonesian word by word translation","resource_id":100},"transliteration":{"id":6465,"language_name":"english","text":"three","resource_name":null,"resource_id":59}},{"id":7503,"position":4,"text_madani":null,"text_indopak":null,"text_simple":null,"verse_key":"56:7","class_name":"p534","line_number":11,"page_number":534,"code":"&#xfba8;","code_v3":"&#xa007;","char_type":"end","audio":{"url":null},"translation":null,"transliteration":null}]},{"id":4987,"verse_number":8,"chapter_id":56,"verse_key":"56:8","text_madani":"فَأَصْحَابُ الْمَيْمَنَةِ مَا أَصْحَابُ الْمَيْمَنَةِ","text_indopak":"فَاَصۡحٰبُ الۡمَيۡمَنَةِ  مَاۤ اَصۡحٰبُ الۡمَيۡمَنَةِ","text_simple":"فاصحاب الميمنة ما اصحاب الميمنة","juz_number":27,"hizb_number":54,"rub_number":214,"sajdah":null,"sajdah_number":null,"page_number":534,"audio":{"url":"versesSudais/mp3/056008.mp3","duration":4,"segments":[["0","1","130","980"],["1","2","990","2000"],["2","3","2010","2380"],["3","4","2390","3090"],["4","5","3100","3960"]],"format":"mp3"},"translations":[{"id":179677,"language_name":"indonesian","text":"yaitu golongan kanan, alangkah mulianya golongan kanan itu,","resource_name":"Indonesian","resource_id":33}],"media_contents":[],"words":[{"id":8746,"position":1,"text_madani":"فَأَصْحَابُ","text_indopak":null,"text_simple":"فاصحاب","verse_key":"56:8","class_name":"p534","line_number":11,"page_number":534,"code":"&#xfba9;","code_v3":"&#xfba9;","char_type":"word","audio":{"url":"//verses.quran.com/wbw/056_008_001.mp3"},"translation":{"id":628435,"language_name":"indonesian","text":"maka kaum/golongan","resource_name":"Indonesian word by word translation","resource_id":100},"transliteration":{"id":7545,"language_name":"english","text":"Then (the) companions","resource_name":null,"resource_id":59}},{"id":8747,"position":2,"text_madani":"الْمَيْمَنَةِ","text_indopak":null,"text_simple":"الميمنة","verse_key":"56:8","class_name":"p534","line_number":12,"page_number":534,"code":"&#xfbaa;","code_v3":"&#xfbaa;","char_type":"word","audio":{"url":"//verses.quran.com/wbw/056_008_002.mp3"},"translation":{"id":628437,"language_name":"indonesian","text":"kanan","resource_name":"Indonesian word by word translation","resource_id":100},"transliteration":{"id":7546,"language_name":"english","text":"(of) the right","resource_name":null,"resource_id":59}},{"id":8748,"position":3,"text_madani":"مَا","text_indopak":null,"text_simple":"ما","verse_key":"56:8","class_name":"p534","line_number":12,"page_number":534,"code":"&#xfbab;","code_v3":"&#xfbab;","char_type":"word","audio":{"url":"//verses.quran.com/wbw/056_008_003.mp3"},"translation":{"id":628439,"language_name":"indonesian","text":"apa/siapa","resource_name":"Indonesian word by word translation","resource_id":100},"transliteration":{"id":7547,"language_name":"english","text":"what","resource_name":null,"resource_id":59}},{"id":8749,"position":4,"text_madani":"أَصْحَابُ","text_indopak":null,"text_simple":"اصحاب","verse_key":"56:8","class_name":"p534","line_number":12,"page_number":534,"code":"&#xfbac;","code_v3":"&#xfbac;","char_type":"word","audio":{"url":"//verses.quran.com/wbw/056_008_004.mp3"},"translation":{"id":628441,"language_name":"indonesian","text":"kaum/golongan","resource_name":"Indonesian word by word translation","resource_id":100},"transliteration":{"id":7548,"language_name":"english","text":"(are the) companions","resource_name":null,"resource_id":59}},{"id":8750,"position":5,"text_madani":"الْمَيْمَنَةِ","text_indopak":null,"text_simple":"الميمنة","verse_key":"56:8","class_name":"p534","line_number":12,"page_number":534,"code":"&#xfbad;","code_v3":"&#xfbad;","char_type":"word","audio":{"url":"//verses.quran.com/wbw/056_008_005.mp3"},"translation":{"id":628443,"language_name":"indonesian","text":"kanan","resource_name":"Indonesian word by word translation","resource_id":100},"transliteration":{"id":7549,"language_name":"english","text":"(of) the right","resource_name":null,"resource_id":59}},{"id":8751,"position":6,"text_madani":null,"text_indopak":null,"text_simple":null,"verse_key":"56:8","class_name":"p534","line_number":12,"page_number":534,"code":"&#xfbae;","code_v3":"&#xa008;","char_type":"end","audio":{"url":null},"translation":null,"transliteration":null}]},{"id":4988,"verse_number":9,"chapter_id":56,"verse_key":"56:9","text_madani":"وَأَصْحَابُ الْمَشْأَمَةِ مَا أَصْحَابُ الْمَشْأَمَةِ","text_indopak":"وَاَصۡحٰبُ الۡمَشۡـَٔـمَةِ  مَاۤ اَصۡحٰبُ الۡمَشۡـَٔـمَةِؕ","text_simple":"واصحاب المشامة ما اصحاب المشامة","juz_number":27,"hizb_number":54,"rub_number":214,"sajdah":null,"sajdah_number":null,"page_number":534,"audio":{"url":"versesSudais/mp3/056009.mp3","duration":4,"segments":[["0","1","90","980"],["1","2","990","2000"],["2","3","2010","2330"],["3","4","2340","3180"],["4","5","3190","3990"]],"format":"mp3"},"translations":[{"id":179683,"language_name":"indonesian","text":"dan golongan kiri, alangkah sengsaranya golongan kiri itu,","resource_name":"Indonesian","resource_id":33}],"media_contents":[],"words":[{"id":9976,"position":1,"text_madani":"وَأَصْحَابُ","text_indopak":null,"text_simple":"واصحاب","verse_key":"56:9","class_name":"p534","line_number":12,"page_number":534,"code":"&#xfbaf;","code_v3":"&#xfbaf;","char_type":"word","audio":{"url":"//verses.quran.com/wbw/056_009_001.mp3"},"translation":{"id":628445,"language_name":"indonesian","text":"dan kaum/golongan","resource_name":"Indonesian word by word translation","resource_id":100},"transliteration":{"id":8622,"language_name":"english","text":"And (the) companions","resource_name":null,"resource_id":59}},{"id":9977,"position":2,"text_madani":"الْمَشْأَمَةِ","text_indopak":null,"text_simple":"المشامة","verse_key":"56:9","class_name":"p534","line_number":12,"page_number":534,"code":"&#xfbb0;","code_v3":"&#xfbb0;","char_type":"word","audio":{"url":"//verses.quran.com/wbw/056_009_002.mp3"},"translation":{"id":628447,"language_name":"indonesian","text":"celaka/kiri","resource_name":"Indonesian word by word translation","resource_id":100},"transliteration":{"id":8623,"language_name":"english","text":"(of) the left","resource_name":null,"resource_id":59}},{"id":9978,"position":3,"text_madani":"مَا","text_indopak":null,"text_simple":"ما","verse_key":"56:9","class_name":"p534","line_number":12,"page_number":534,"code":"&#xfbb1;","code_v3":"&#xfbb1;","char_type":"word","audio":{"url":"//verses.quran.com/wbw/056_009_003.mp3"},"translation":{"id":628449,"language_name":"indonesian","text":"apa/siapa","resource_name":"Indonesian word by word translation","resource_id":100},"transliteration":{"id":8624,"language_name":"english","text":"what","resource_name":null,"resource_id":59}},{"id":9979,"position":4,"text_madani":"أَصْحَابُ","text_indopak":null,"text_simple":"اصحاب","verse_key":"56:9","class_name":"p534","line_number":12,"page_number":534,"code":"&#xfbd3;","code_v3":"&#xfbd3;","char_type":"word","audio":{"url":"//verses.quran.com/wbw/056_009_004.mp3"},"translation":{"id":628451,"language_name":"indonesian","text":"kaum/golongan","resource_name":"Indonesian word by word translation","resource_id":100},"transliteration":{"id":8625,"language_name":"english","text":"(are the) companions","resource_name":null,"resource_id":59}},{"id":9980,"position":5,"text_madani":"الْمَشْأَمَةِ","text_indopak":null,"text_simple":"المشامة","verse_key":"56:9","class_name":"p534","line_number":13,"page_number":534,"code":"&#xfbd4;","code_v3":"&#xfbd4;","char_type":"word","audio":{"url":"//verses.quran.com/wbw/056_009_005.mp3"},"translation":{"id":628453,"language_name":"indonesian","text":"kiri","resource_name":"Indonesian word by word translation","resource_id":100},"transliteration":{"id":8626,"language_name":"english","text":"(of) the left","resource_name":null,"resource_id":59}},{"id":9981,"position":6,"text_madani":null,"text_indopak":null,"text_simple":null,"verse_key":"56:9","class_name":"p534","line_number":13,"page_number":534,"code":"&#xfbd5;","code_v3":"&#xa009;","char_type":"end","audio":{"url":null},"translation":null,"transliteration":null}]},{"id":4989,"verse_number":10,"chapter_id":56,"verse_key":"56:10","text_madani":"وَالسَّابِقُونَ السَّابِقُونَ","text_indopak":"وَالسّٰبِقُوۡنَ السّٰبِقُوۡنَۚ","text_simple":"والسابقون السابقون","juz_number":27,"hizb_number":54,"rub_number":214,"sajdah":null,"sajdah_number":null,"page_number":534,"audio":{"url":"versesSudais/mp3/056010.mp3","duration":3,"segments":[["0","1","110","1520"],["1","2","1530","2920"]],"format":"mp3"},"translations":[{"id":179709,"language_name":"indonesian","text":"dan orang-orang yang paling dahulu (beriman), merekalah yang paling dahulu (masuk surga).","resource_name":"Indonesian","resource_id":33}],"media_contents":[],"words":[{"id":11171,"position":1,"text_madani":"وَالسَّابِقُونَ","text_indopak":null,"text_simple":"والسابقون","verse_key":"56:10","class_name":"p534","line_number":13,"page_number":534,"code":"&#xfbd6;","code_v3":"&#xfbd6;","char_type":"word","audio":{"url":"//verses.quran.com/wbw/056_010_001.mp3"},"translation":{"id":628455,"language_name":"indonesian","text":"dan orang-orang terdahulu","resource_name":"Indonesian word by word translation","resource_id":100},"transliteration":{"id":9666,"language_name":"english","text":"And the foremost","resource_name":null,"resource_id":59}},{"id":11172,"position":2,"text_madani":"السَّابِقُونَ","text_indopak":null,"text_simple":"السابقون","verse_key":"56:10","class_name":"p534","line_number":13,"page_number":534,"code":"&#xfbd7;","code_v3":"&#xfbd7;","char_type":"word","audio":{"url":"//verses.quran.com/wbw/056_010_002.mp3"},"translation":{"id":628457,"language_name":"indonesian","text":"orang-orang terdahulu","resource_name":"Indonesian word by word translation","resource_id":100},"transliteration":{"id":9667,"language_name":"english","text":"(are) the foremost","resource_name":null,"resource_id":59}},{"id":11173,"position":3,"text_madani":null,"text_indopak":null,"text_simple":null,"verse_key":"56:10","class_name":"p534","line_number":13,"page_number":534,"code":"&#xfbd8;","code_v3":"&#xa010;","char_type":"end","audio":{"url":null},"translation":null,"transliteration":null}]}],"meta":{"current_page":1,"next_page":2,"prev_page":null,"total_pages":10,"total_count":96}}